solution1/sim/wrapc_pc/run_xsim.log
Attempting to open files... 
Running DUT 





dest: 34:00:00:00:00:00 src: 00:00:00:00:00:00, type: 00:00



dest: 34:17:00:00:00:00 src: 00:00:00:00:00:00, type: 00:00



dest: 34:17:EB:00:00:00 src: 00:00:00:00:00:00, type: 00:00



dest: 34:17:EB:BA:00:00 src: 00:00:00:00:00:00, type: 00:00



dest: 34:17:EB:BA:8F:00 src: 00:00:00:00:00:00, type: 00:00



dest: 34:17:EB:BA:8F:66 src: 00:00:00:00:00:00, type: 00:00



dest: 34:17:EB:BA:8F:66 src: 4A:00:00:00:00:00, type: 00:00



dest: 34:17:EB:BA:8F:66 src: 4A:1D:00:00:00:00, type: 00:00



dest: 34:17:EB:BA:8F:66 src: 4A:1D:70:00:00:00, type: 00:00



dest: 34:17:EB:BA:8F:66 src: 4A:1D:70:64:00:00, type: 00:00



dest: 34:17:EB:BA:8F:66 src: 4A:1D:70:64:21:00, type: 00:00



dest: 34:17:EB:BA:8F:66 src: 4A:1D:70:64:21:96, type: 00:00



dest: 34:17:EB:BA:8F:66 src: 4A:1D:70:64:21:96, type: 08:00



dest: 34:17:EB:BA:8F:66 src: 4A:1D:70:64:21:96, type: 08:06



dest: 34:17:EB:BA:8F:66 src: 4A:1D:70:64:21:96, type: 08:06



dest: 34:17:EB:BA:8F:66 src: 4A:1D:70:64:21:96, type: 08:06



dest: 34:17:EB:BA:8F:66 src: 4A:1D:70:64:21:96, type: 08:06



dest: 34:17:EB:BA:8F:66 src: 4A:1D:70:64:21:96, type: 08:06



dest: 34:17:EB:BA:8F:66 src: 4A:1D:70:64:21:96, type: 08:06



dest: 34:17:EB:BA:8F:66 src: 4A:1D:70:64:21:96, type: 08:06



dest: 34:17:EB:BA:8F:66 src: 4A:1D:70:64:21:96, type: 08:06



dest: 34:17:EB:BA:8F:66 src: 4A:1D:70:64:21:96, type: 08:06



dest: 34:17:EB:BA:8F:66 src: 4A:1D:70:64:21:96, type: 08:06



dest: 34:17:EB:BA:8F:66 src: 4A:1D:70:64:21:96, type: 08:06



dest: 34:17:EB:BA:8F:66 src: 4A:1D:70:64:21:96, type: 08:06



dest: 34:17:EB:BA:8F:66 src: 4A:1D:70:64:21:96, type: 08:06



dest: 34:17:EB:BA:8F:66 src: 4A:1D:70:64:21:96, type: 08:06



dest: 34:17:EB:BA:8F:66 src: 4A:1D:70:64:21:96, type: 08:06



dest: 34:17:EB:BA:8F:66 src: 4A:1D:70:64:21:96, type: 08:06



dest: 34:17:EB:BA:8F:66 src: 4A:1D:70:64:21:96, type: 08:06



dest: 34:17:EB:BA:8F:66 src: 4A:1D:70:64:21:96, type: 08:06



dest: 34:17:EB:BA:8F:66 src: 4A:1D:70:64:21:96, type: 08:06



dest: 34:17:EB:BA:8F:66 src: 4A:1D:70:64:21:96, type: 08:06



dest: 34:17:EB:BA:8F:66 src: 4A:1D:70:64:21:96, type: 08:06



dest: 34:17:EB:BA:8F:66 src: 4A:1D:70:64:21:96, type: 08:06



dest: 34:17:EB:BA:8F:66 src: 4A:1D:70:64:21:96, type: 08:06



dest: 34:17:EB:BA:8F:66 src: 4A:1D:70:64:21:96, type: 08:06



dest: 34:17:EB:BA:8F:66 src: 4A:1D:70:64:21:96, type: 08:06



dest: 34:17:EB:BA:8F:66 src: 4A:1D:70:64:21:96, type: 08:06



dest: 34:17:EB:BA:8F:66 src: 4A:1D:70:64:21:96, type: 08:06



dest: 34:17:EB:BA:8F:66 src: 4A:1D:70:64:21:96, type: 08:06



dest: 34:17:EB:BA:8F:66 src: 4A:1D:70:64:21:96, type: 08:06



dest: 34:17:EB:BA:8F:66 src: 4A:1D:70:64:21:96, type: 08:06



dest: 34:17:EB:BA:8F:66 src: 4A:1D:70:64:21:96, type: 08:06



dest: 34:17:EB:BA:8F:66 src: 4A:1D:70:64:21:96, type: 08:06



dest: 34:17:EB:BA:8F:66 src: 4A:1D:70:64:21:96, type: 08:06



dest: 34:17:EB:BA:8F:66 src: 4A:1D:70:64:21:96, type: 08:06



dest: 34:17:EB:BA:8F:66 src: 4A:1D:70:64:21:96, type: 08:06



dest: 34:17:EB:BA:8F:66 src: 4A:1D:70:64:21:96, type: 08:06



dest: 34:17:EB:BA:8F:66 src: 4A:1D:70:64:21:96, type: 08:06



dest: 34:17:EB:BA:8F:66 src: 4A:1D:70:64:21:96, type: 08:06



dest: 34:17:EB:BA:8F:66 src: 4A:1D:70:64:21:96, type: 08:06



dest: 34:17:EB:BA:8F:66 src: 4A:1D:70:64:21:96, type: 08:06



dest: 34:17:EB:BA:8F:66 src: 4A:1D:70:64:21:96, type: 08:06



dest: 34:17:EB:BA:8F:66 src: 4A:1D:70:64:21:96, type: 08:06



dest: 34:17:EB:BA:8F:66 src: 4A:1D:70:64:21:96, type: 08:06



dest: 34:17:EB:BA:8F:66 src: 4A:1D:70:64:21:96, type: 08:06



dest: 34:17:EB:BA:8F:66 src: 4A:1D:70:64:21:96, type: 08:06



dest: 34:17:EB:BA:8F:66 src: 4A:1D:70:64:21:96, type: 08:06



dest: 34:17:EB:BA:8F:66 src: 4A:1D:70:64:21:96, type: 08:06



dest: 34:17:EB:BA:8F:66 src: 4A:1D:70:64:21:96, type: 08:06



dest: 34:17:EB:BA:8F:66 src: 4A:1D:70:64:21:96, type: 08:06



dest: 34:17:EB:BA:8F:66 src: 4A:1D:70:64:21:96, type: 08:06



dest: 34:17:EB:BA:8F:66 src: 4A:1D:70:64:21:96, type: 08:06



dest: FF:17:EB:BA:8F:66 src: 4A:1D:70:64:21:96, type: 08:06



dest: FF:FF:EB:BA:8F:66 src: 4A:1D:70:64:21:96, type: 08:06



dest: FF:FF:FF:BA:8F:66 src: 4A:1D:70:64:21:96, type: 08:06



dest: FF:FF:FF:FF:8F:66 src: 4A:1D:70:64:21:96, type: 08:06



dest: FF:FF:FF:FF:FF:66 src: 4A:1D:70:64:21:96, type: 08:06



dest: FF:FF:FF:FF:FF:FF src: 4A:1D:70:64:21:96, type: 08:06



dest: FF:FF:FF:FF:FF:FF src: 34:1D:70:64:21:96, type: 08:06



dest: FF:FF:FF:FF:FF:FF src: 34:17:70:64:21:96, type: 08:06



dest: FF:FF:FF:FF:FF:FF src: 34:17:EB:64:21:96, type: 08:06



dest: FF:FF:FF:FF:FF:FF src: 34:17:EB:BA:21:96, type: 08:06



dest: FF:FF:FF:FF:FF:FF src: 34:17:EB:BA:8F:96, type: 08:06



dest: FF:FF:FF:FF:FF:FF src: 34:17:EB:BA:8F:66, type: 08:06



dest: FF:FF:FF:FF:FF:FF src: 34:17:EB:BA:8F:66, type: 08:06



dest: FF:FF:FF:FF:FF:FF src: 34:17:EB:BA:8F:66, type: 08:00



dest: FF:FF:FF:FF:FF:FF src: 34:17:EB:BA:8F:66, type: 08:00



dest: FF:FF:FF:FF:FF:FF src: 34:17:EB:BA:8F:66, type: 08:00



dest: FF:FF:FF:FF:FF:FF src: 34:17:EB:BA:8F:66, type: 08:00



dest: FF:FF:FF:FF:FF:FF src: 34:17:EB:BA:8F:66, type: 08:00



dest: FF:FF:FF:FF:FF:FF src: 34:17:EB:BA:8F:66, type: 08:00



dest: FF:FF:FF:FF:FF:FF src: 34:17:EB:BA:8F:66, type: 08:00



dest: FF:FF:FF:FF:FF:FF src: 34:17:EB:BA:8F:66, type: 08:00



dest: FF:FF:FF:FF:FF:FF src: 34:17:EB:BA:8F:66, type: 08:00



dest: FF:FF:FF:FF:FF:FF src: 34:17:EB:BA:8F:66, type: 08:00



dest: FF:FF:FF:FF:FF:FF src: 34:17:EB:BA:8F:66, type: 08:00



dest: FF:FF:FF:FF:FF:FF src: 34:17:EB:BA:8F:66, type: 08:00



dest: FF:FF:FF:FF:FF:FF src: 34:17:EB:BA:8F:66, type: 08:00



dest: FF:FF:FF:FF:FF:FF src: 34:17:EB:BA:8F:66, type: 08:00



dest: FF:FF:FF:FF:FF:FF src: 34:17:EB:BA:8F:66, type: 08:00



dest: FF:FF:FF:FF:FF:FF src: 34:17:EB:BA:8F:66, type: 08:00



dest: FF:FF:FF:FF:FF:FF src: 34:17:EB:BA:8F:66, type: 08:00



dest: FF:FF:FF:FF:FF:FF src: 34:17:EB:BA:8F:66, type: 08:00



dest: FF:FF:FF:FF:FF:FF src: 34:17:EB:BA:8F:66, type: 08:00



dest: FF:FF:FF:FF:FF:FF src: 34:17:EB:BA:8F:66, type: 08:00



dest: FF:FF:FF:FF:FF:FF src: 34:17:EB:BA:8F:66, type: 08:00



dest: FF:FF:FF:FF:FF:FF src: 34:17:EB:BA:8F:66, type: 08:00



dest: FF:FF:FF:FF:FF:FF src: 34:17:EB:BA:8F:66, type: 08:00



dest: FF:FF:FF:FF:FF:FF src: 34:17:EB:BA:8F:66, type: 08:00



dest: FF:FF:FF:FF:FF:FF src: 34:17:EB:BA:8F:66, type: 08:00



dest: FF:FF:FF:FF:FF:FF src: 34:17:EB:BA:8F:66, type: 08:00



dest: FF:FF:FF:FF:FF:FF src: 34:17:EB:BA:8F:66, type: 08:00



dest: FF:FF:FF:FF:FF:FF src: 34:17:EB:BA:8F:66, type: 08:00



dest: FF:FF:FF:FF:FF:FF src: 34:17:EB:BA:8F:66, type: 08:00



dest: FF:FF:FF:FF:FF:FF src: 34:17:EB:BA:8F:66, type: 08:00



dest: FF:FF:FF:FF:FF:FF src: 34:17:EB:BA:8F:66, type: 08:00



dest: FF:FF:FF:FF:FF:FF src: 34:17:EB:BA:8F:66, type: 08:00



dest: FF:FF:FF:FF:FF:FF src: 34:17:EB:BA:8F:66, type: 08:00



dest: FF:FF:FF:FF:FF:FF src: 34:17:EB:BA:8F:66, type: 08:00



dest: FF:FF:FF:FF:FF:FF src: 34:17:EB:BA:8F:66, type: 08:00



dest: FF:FF:FF:FF:FF:FF src: 34:17:EB:BA:8F:66, type: 08:00



dest: FF:FF:FF:FF:FF:FF src: 34:17:EB:BA:8F:66, type: 08:00



dest: FF:FF:FF:FF:FF:FF src: 34:17:EB:BA:8F:66, type: 08:00



dest: FF:FF:FF:FF:FF:FF src: 34:17:EB:BA:8F:66, type: 08:00



dest: FF:FF:FF:FF:FF:FF src: 34:17:EB:BA:8F:66, type: 08:00



dest: FF:FF:FF:FF:FF:FF src: 34:17:EB:BA:8F:66, type: 08:00



dest: FF:FF:FF:FF:FF:FF src: 34:17:EB:BA:8F:66, type: 08:00



dest: FF:FF:FF:FF:FF:FF src: 34:17:EB:BA:8F:66, type: 08:00



dest: FF:FF:FF:FF:FF:FF src: 34:17:EB:BA:8F:66, type: 08:00



dest: FF:FF:FF:FF:FF:FF src: 34:17:EB:BA:8F:66, type: 08:00



dest: FF:FF:FF:FF:FF:FF src: 34:17:EB:BA:8F:66, type: 08:00



dest: FF:FF:FF:FF:FF:FF src: 34:17:EB:BA:8F:66, type: 08:00



dest: FF:FF:FF:FF:FF:FF src: 34:17:EB:BA:8F:66, type: 08:00



dest: FF:FF:FF:FF:FF:FF src: 34:17:EB:BA:8F:66, type: 08:00



dest: FF:FF:FF:FF:FF:FF src: 34:17:EB:BA:8F:66, type: 08:00



dest: FF:FF:FF:FF:FF:FF src: 34:17:EB:BA:8F:66, type: 08:00



dest: FF:FF:FF:FF:FF:FF src: 34:17:EB:BA:8F:66, type: 08:00



dest: FF:FF:FF:FF:FF:FF src: 34:17:EB:BA:8F:66, type: 08:00



dest: FF:FF:FF:FF:FF:FF src: 34:17:EB:BA:8F:66, type: 08:00



dest: FF:FF:FF:FF:FF:FF src: 34:17:EB:BA:8F:66, type: 08:00



dest: FF:FF:FF:FF:FF:FF src: 34:17:EB:BA:8F:66, type: 08:00



dest: FF:FF:FF:FF:FF:FF src: 34:17:EB:BA:8F:66, type: 08:00



dest: FF:FF:FF:FF:FF:FF src: 34:17:EB:BA:8F:66, type: 08:00



dest: FF:FF:FF:FF:FF:FF src: 34:17:EB:BA:8F:66, type: 08:00



dest: FF:FF:FF:FF:FF:FF src: 34:17:EB:BA:8F:66, type: 08:00



dest: FF:FF:FF:FF:FF:FF src: 34:17:EB:BA:8F:66, type: 08:00



dest: FF:FF:FF:FF:FF:FF src: 34:17:EB:BA:8F:66, type: 08:00



dest: FF:FF:FF:FF:FF:FF src: 34:17:EB:BA:8F:66, type: 08:00



dest: FF:FF:FF:FF:FF:FF src: 34:17:EB:BA:8F:66, type: 08:00



dest: FF:FF:FF:FF:FF:FF src: 34:17:EB:BA:8F:66, type: 08:00



dest: FF:FF:FF:FF:FF:FF src: 34:17:EB:BA:8F:66, type: 08:00



dest: FF:FF:FF:FF:FF:FF src: 34:17:EB:BA:8F:66, type: 08:00



dest: FF:FF:FF:FF:FF:FF src: 34:17:EB:BA:8F:66, type: 08:00



dest: FF:FF:FF:FF:FF:FF src: 34:17:EB:BA:8F:66, type: 08:00



dest: FF:FF:FF:FF:FF:FF src: 34:17:EB:BA:8F:66, type: 08:00



dest: FF:FF:FF:FF:FF:FF src: 34:17:EB:BA:8F:66, type: 08:00



dest: FF:FF:FF:FF:FF:FF src: 34:17:EB:BA:8F:66, type: 08:00



dest: FF:FF:FF:FF:FF:FF src: 34:17:EB:BA:8F:66, type: 08:00



dest: FF:FF:FF:FF:FF:FF src: 34:17:EB:BA:8F:66, type: 08:00



dest: FF:FF:FF:FF:FF:FF src: 34:17:EB:BA:8F:66, type: 08:00



dest: FF:FF:FF:FF:FF:FF src: 34:17:EB:BA:8F:66, type: 08:00



dest: FF:FF:FF:FF:FF:FF src: 34:17:EB:BA:8F:66, type: 08:00



dest: FF:FF:FF:FF:FF:FF src: 34:17:EB:BA:8F:66, type: 08:00



dest: FF:FF:FF:FF:FF:FF src: 34:17:EB:BA:8F:66, type: 08:00



dest: FF:FF:FF:FF:FF:FF src: 34:17:EB:BA:8F:66, type: 08:00



dest: FF:FF:FF:FF:FF:FF src: 34:17:EB:BA:8F:66, type: 08:00



dest: FF:FF:FF:FF:FF:FF src: 34:17:EB:BA:8F:66, type: 08:00



dest: FF:FF:FF:FF:FF:FF src: 34:17:EB:BA:8F:66, type: 08:00



dest: FF:FF:FF:FF:FF:FF src: 34:17:EB:BA:8F:66, type: 08:00



dest: FF:FF:FF:FF:FF:FF src: 34:17:EB:BA:8F:66, type: 08:00



dest: FF:FF:FF:FF:FF:FF src: 34:17:EB:BA:8F:66, type: 08:00



dest: FF:FF:FF:FF:FF:FF src: 34:17:EB:BA:8F:66, type: 08:00



dest: FF:FF:FF:FF:FF:FF src: 34:17:EB:BA:8F:66, type: 08:00



dest: FF:FF:FF:FF:FF:FF src: 34:17:EB:BA:8F:66, type: 08:00



dest: FF:FF:FF:FF:FF:FF src: 34:17:EB:BA:8F:66, type: 08:00



dest: FF:FF:FF:FF:FF:FF src: 34:17:EB:BA:8F:66, type: 08:00



dest: FF:FF:FF:FF:FF:FF src: 34:17:EB:BA:8F:66, type: 08:00



dest: FF:FF:FF:FF:FF:FF src: 34:17:EB:BA:8F:66, type: 08:00



dest: FF:FF:FF:FF:FF:FF src: 34:17:EB:BA:8F:66, type: 08:00



dest: FF:FF:FF:FF:FF:FF src: 34:17:EB:BA:8F:66, type: 08:00



dest: FF:FF:FF:FF:FF:FF src: 34:17:EB:BA:8F:66, type: 08:00



dest: FF:FF:FF:FF:FF:FF src: 34:17:EB:BA:8F:66, type: 08:00



dest: FF:FF:FF:FF:FF:FF src: 34:17:EB:BA:8F:66, type: 08:00



dest: FF:FF:FF:FF:FF:FF src: 34:17:EB:BA:8F:66, type: 08:00



dest: FF:FF:FF:FF:FF:FF src: 34:17:EB:BA:8F:66, type: 08:00



dest: FF:FF:FF:FF:FF:FF src: 34:17:EB:BA:8F:66, type: 08:00



dest: FF:FF:FF:FF:FF:FF src: 34:17:EB:BA:8F:66, type: 08:00



dest: FF:FF:FF:FF:FF:FF src: 34:17:EB:BA:8F:66, type: 08:00



dest: FF:FF:FF:FF:FF:FF src: 34:17:EB:BA:8F:66, type: 08:00



dest: FF:FF:FF:FF:FF:FF src: 34:17:EB:BA:8F:66, type: 08:00



dest: FF:FF:FF:FF:FF:FF src: 34:17:EB:BA:8F:66, type: 08:00



dest: FF:FF:FF:FF:FF:FF src: 34:17:EB:BA:8F:66, type: 08:00



dest: FF:FF:FF:FF:FF:FF src: 34:17:EB:BA:8F:66, type: 08:00



dest: FF:FF:FF:FF:FF:FF src: 34:17:EB:BA:8F:66, type: 08:00



dest: FF:FF:FF:FF:FF:FF src: 34:17:EB:BA:8F:66, type: 08:00



dest: FF:FF:FF:FF:FF:FF src: 34:17:EB:BA:8F:66, type: 08:00



dest: FF:FF:FF:FF:FF:FF src: 34:17:EB:BA:8F:66, type: 08:00



dest: FF:FF:FF:FF:FF:FF src: 34:17:EB:BA:8F:66, type: 08:00



dest: FF:FF:FF:FF:FF:FF src: 34:17:EB:BA:8F:66, type: 08:00



dest: FF:FF:FF:FF:FF:FF src: 34:17:EB:BA:8F:66, type: 08:00



dest: 33:FF:FF:FF:FF:FF src: 34:17:EB:BA:8F:66, type: 08:00



dest: 33:33:FF:FF:FF:FF src: 34:17:EB:BA:8F:66, type: 08:00



dest: 33:33:00:FF:FF:FF src: 34:17:EB:BA:8F:66, type: 08:00



dest: 33:33:00:00:FF:FF src: 34:17:EB:BA:8F:66, type: 08:00



dest: 33:33:00:00:00:FF src: 34:17:EB:BA:8F:66, type: 08:00



dest: 33:33:00:00:00:01 src: 34:17:EB:BA:8F:66, type: 08:00



dest: 33:33:00:00:00:01 src: 4A:17:EB:BA:8F:66, type: 08:00



dest: 33:33:00:00:00:01 src: 4A:1D:EB:BA:8F:66, type: 08:00



dest: 33:33:00:00:00:01 src: 4A:1D:70:BA:8F:66, type: 08:00



dest: 33:33:00:00:00:01 src: 4A:1D:70:64:8F:66, type: 08:00



dest: 33:33:00:00:00:01 src: 4A:1D:70:64:21:66, type: 08:00



dest: 33:33:00:00:00:01 src: 4A:1D:70:64:21:96, type: 08:00



dest: 33:33:00:00:00:01 src: 4A:1D:70:64:21:96, type: 86:00



dest: 33:33:00:00:00:01 src: 4A:1D:70:64:21:96, type: 86:DD



dest: 33:33:00:00:00:01 src: 4A:1D:70:64:21:96, type: 86:DD



dest: 33:33:00:00:00:01 src: 4A:1D:70:64:21:96, type: 86:DD



dest: 33:33:00:00:00:01 src: 4A:1D:70:64:21:96, type: 86:DD



dest: 33:33:00:00:00:01 src: 4A:1D:70:64:21:96, type: 86:DD



dest: 33:33:00:00:00:01 src: 4A:1D:70:64:21:96, type: 86:DD



dest: 33:33:00:00:00:01 src: 4A:1D:70:64:21:96, type: 86:DD



dest: 33:33:00:00:00:01 src: 4A:1D:70:64:21:96, type: 86:DD



dest: 33:33:00:00:00:01 src: 4A:1D:70:64:21:96, type: 86:DD



dest: 33:33:00:00:00:01 src: 4A:1D:70:64:21:96, type: 86:DD



dest: 33:33:00:00:00:01 src: 4A:1D:70:64:21:96, type: 86:DD



dest: 33:33:00:00:00:01 src: 4A:1D:70:64:21:96, type: 86:DD



dest: 33:33:00:00:00:01 src: 4A:1D:70:64:21:96, type: 86:DD



dest: 33:33:00:00:00:01 src: 4A:1D:70:64:21:96, type: 86:DD



dest: 33:33:00:00:00:01 src: 4A:1D:70:64:21:96, type: 86:DD



dest: 33:33:00:00:00:01 src: 4A:1D:70:64:21:96, type: 86:DD



dest: 33:33:00:00:00:01 src: 4A:1D:70:64:21:96, type: 86:DD



dest: 33:33:00:00:00:01 src: 4A:1D:70:64:21:96, type: 86:DD



dest: 33:33:00:00:00:01 src: 4A:1D:70:64:21:96, type: 86:DD



dest: 33:33:00:00:00:01 src: 4A:1D:70:64:21:96, type: 86:DD



dest: 33:33:00:00:00:01 src: 4A:1D:70:64:21:96, type: 86:DD



dest: 33:33:00:00:00:01 src: 4A:1D:70:64:21:96, type: 86:DD



dest: 33:33:00:00:00:01 src: 4A:1D:70:64:21:96, type: 86:DD



dest: 33:33:00:00:00:01 src: 4A:1D:70:64:21:96, type: 86:DD



dest: 33:33:00:00:00:01 src: 4A:1D:70:64:21:96, type: 86:DD



dest: 33:33:00:00:00:01 src: 4A:1D:70:64:21:96, type: 86:DD



dest: 33:33:00:00:00:01 src: 4A:1D:70:64:21:96, type: 86:DD



dest: 33:33:00:00:00:01 src: 4A:1D:70:64:21:96, type: 86:DD



dest: 33:33:00:00:00:01 src: 4A:1D:70:64:21:96, type: 86:DD



dest: 33:33:00:00:00:01 src: 4A:1D:70:64:21:96, type: 86:DD



dest: 33:33:00:00:00:01 src: 4A:1D:70:64:21:96, type: 86:DD



dest: 33:33:00:00:00:01 src: 4A:1D:70:64:21:96, type: 86:DD



dest: 33:33:00:00:00:01 src: 4A:1D:70:64:21:96, type: 86:DD



dest: 33:33:00:00:00:01 src: 4A:1D:70:64:21:96, type: 86:DD



dest: 33:33:00:00:00:01 src: 4A:1D:70:64:21:96, type: 86:DD



dest: 33:33:00:00:00:01 src: 4A:1D:70:64:21:96, type: 86:DD



dest: 33:33:00:00:00:01 src: 4A:1D:70:64:21:96, type: 86:DD



dest: 33:33:00:00:00:01 src: 4A:1D:70:64:21:96, type: 86:DD



dest: 33:33:00:00:00:01 src: 4A:1D:70:64:21:96, type: 86:DD



dest: 33:33:00:00:00:01 src: 4A:1D:70:64:21:96, type: 86:DD



dest: 33:33:00:00:00:01 src: 4A:1D:70:64:21:96, type: 86:DD



dest: 33:33:00:00:00:01 src: 4A:1D:70:64:21:96, type: 86:DD



dest: 33:33:00:00:00:01 src: 4A:1D:70:64:21:96, type: 86:DD



dest: 33:33:00:00:00:01 src: 4A:1D:70:64:21:96, type: 86:DD



dest: 33:33:00:00:00:01 src: 4A:1D:70:64:21:96, type: 86:DD



dest: 33:33:00:00:00:01 src: 4A:1D:70:64:21:96, type: 86:DD



dest: 33:33:00:00:00:01 src: 4A:1D:70:64:21:96, type: 86:DD



dest: 33:33:00:00:00:01 src: 4A:1D:70:64:21:96, type: 86:DD



dest: 33:33:00:00:00:01 src: 4A:1D:70:64:21:96, type: 86:DD



dest: 33:33:00:00:00:01 src: 4A:1D:70:64:21:96, type: 86:DD



dest: 33:33:00:00:00:01 src: 4A:1D:70:64:21:96, type: 86:DD

WARNING: Hls::stream 'header_data' contains leftover data, which may result in RTL simulation hanging.
INFO: [XSIM 43-3496] Using init file passed via -initfile option "/opt/Xilinx/Vivado/2016.2/bin/../data/xsim/ip/xsim_ip.ini".
Vivado Simulator 2016.2
Copyright 1986-1999, 2001-2016 Xilinx, Inc. All Rights Reserved.
Running: /opt/Xilinx/Vivado/2016.2/bin/unwrapped/lnx64.o/xelab xil_defaultlib.apatb_frameSIPO_top -prj frameSIPO.prj --initfile /opt/Xilinx/Vivado/2016.2/bin/../data/xsim/ip/xsim_ip.ini --lib ieee_proposed=./ieee_proposed -s frameSIPO 
Multi-threading is on. Using 6 slave threads.
Determining compilation order of HDL files.
WARNING: [XSIM 43-3431] One or more environment variables have been detected which affect the operation of the C compiler. These are typically not set in standard installations and are not tested by Xilinx, however they may be appropriate for your system, so the flow will attempt to continue.  If errors occur, try running fuse with the "-mt off -v 1" switches to see more information from the C compiler. The following environment variables have been detected:
    LIBRARY_PATH
INFO: [VRFC 10-163] Analyzing VHDL file "/home/brett/workspace/Vivado_WS/pie_hls/solution1/sim/vhdl/AESL_sim_pkg.vhd" into library xil_defaultlib
INFO: [VRFC 10-163] Analyzing VHDL file "/home/brett/workspace/Vivado_WS/pie_hls/solution1/sim/vhdl/AESL_axi_s_headerData_V_dest_MAC_V.vhd" into library xil_defaultlib
INFO: [VRFC 10-307] analyzing entity AESL_axi_s_headerData_V_dest_MAC_V
INFO: [VRFC 10-163] Analyzing VHDL file "/home/brett/workspace/Vivado_WS/pie_hls/solution1/sim/vhdl/AESL_axi_s_inData.vhd" into library xil_defaultlib
INFO: [VRFC 10-307] analyzing entity AESL_axi_s_inData
INFO: [VRFC 10-163] Analyzing VHDL file "/home/brett/workspace/Vivado_WS/pie_hls/solution1/sim/vhdl/AESL_axi_s_headerData_V_src_MAC_V.vhd" into library xil_defaultlib
INFO: [VRFC 10-307] analyzing entity AESL_axi_s_headerData_V_src_MAC_V
INFO: [VRFC 10-163] Analyzing VHDL file "/home/brett/workspace/Vivado_WS/pie_hls/solution1/sim/vhdl/AESL_axi_s_headerData_V_ethertype_V.vhd" into library xil_defaultlib
INFO: [VRFC 10-307] analyzing entity AESL_axi_s_headerData_V_ethertype_V
INFO: [VRFC 10-163] Analyzing VHDL file "/home/brett/workspace/Vivado_WS/pie_hls/solution1/sim/vhdl/frameSIPO.autotb.vhd" into library xil_defaultlib
INFO: [VRFC 10-307] analyzing entity apatb_frameSIPO_top
INFO: [VRFC 10-163] Analyzing VHDL file "/home/brett/workspace/Vivado_WS/pie_hls/solution1/sim/vhdl/frameSIPO.vhd" into library xil_defaultlib
INFO: [VRFC 10-307] analyzing entity frameSIPO
Starting static elaboration
WARNING: [VRFC 10-1303] range is empty (null range) [/proj/xhdhdstaff2/tapodyu/XsimWork/data/vhdl/src/ieee/distributable/numeric_std.vhd:3462]
WARNING: [VRFC 10-1303] range is empty (null range) [/proj/xhdhdstaff2/tapodyu/XsimWork/data/vhdl/src/ieee/distributable/numeric_std.vhd:3462]
Completed static elaboration
Starting simulation data flow analysis
Completed simulation data flow analysis
Time Resolution for simulation is 1ps
Compiling package std.standard
Compiling package ieee.std_logic_1164
Compiling package ieee.std_logic_arith
Compiling package ieee.std_logic_unsigned
Compiling package ieee.numeric_std
Compiling package std.textio
Compiling package ieee.std_logic_textio
Compiling architecture behav of entity xil_defaultlib.frameSIPO [framesipo_default]
Compiling architecture behav of entity xil_defaultlib.AESL_axi_s_inData [aesl_axi_s_indata_default]
Compiling architecture behav of entity xil_defaultlib.AESL_axi_s_headerData_V_src_MAC_V [aesl_axi_s_headerdata_v_src_mac_...]
Compiling architecture behav of entity xil_defaultlib.AESL_axi_s_headerData_V_dest_MAC_V [aesl_axi_s_headerdata_v_dest_mac...]
Compiling architecture behav of entity xil_defaultlib.AESL_axi_s_headerData_V_ethertype_V [aesl_axi_s_headerdata_v_ethertyp...]
Compiling architecture behav of entity xil_defaultlib.apatb_framesipo_top
Built simulation snapshot frameSIPO

****** Webtalk v2016.2 (64-bit)
  **** SW Build 1577090 on Thu Jun  2 16:32:35 MDT 2016
  **** IP Build 1577682 on Fri Jun  3 12:00:54 MDT 2016
    ** Copyright 1986-2016 Xilinx, Inc. All Rights Reserved.

source /home/brett/workspace/Vivado_WS/pie_hls/solution1/sim/vhdl/xsim.dir/frameSIPO/webtalk/xsim_webtalk.tcl -notrace
INFO: [Common 17-206] Exiting Webtalk at Fri Sep  2 09:35:40 2016...

****** xsim v2016.2 (64-bit)
  **** SW Build 1577090 on Thu Jun  2 16:32:35 MDT 2016
  **** IP Build 1577682 on Fri Jun  3 12:00:54 MDT 2016
    ** Copyright 1986-2016 Xilinx, Inc. All Rights Reserved.

source xsim.dir/frameSIPO/xsim_script.tcl
# xsim {frameSIPO} -autoloadwcfg -tclbatch {frameSIPO.tcl}
Vivado Simulator 2016.2
Time resolution is 1 ps
source frameSIPO.tcl
## run all
Note: simulation done!
Time: 18284 ns  Iteration: 1  Process: /apatb_frameSIPO_top/generate_sim_done_proc  File: /home/brett/workspace/Vivado_WS/pie_hls/solution1/sim/vhdl/frameSIPO.autotb.vhd
Failure: NORMAL EXIT (note: failure is to force the simulator to stop)
Time: 18284 ns  Iteration: 1  Process: /apatb_frameSIPO_top/generate_sim_done_proc  File: /home/brett/workspace/Vivado_WS/pie_hls/solution1/sim/vhdl/frameSIPO.autotb.vhd
$finish called at time : 18284 ns
## quit
INFO: [Common 17-206] Exiting xsim at Fri Sep  2 09:35:42 2016...
Attempting to open files... 
Running DUT 



WARNING: Hls::stream 'header_data' contains leftover data, which may result in RTL simulation hanging.
